{
    "categories": [
        {
            "name": "SoMe",
            "questions": [
                {"i": 1, "q": "Socialt medie som blev opkøbt af Facebook i 2012", "a": "Hvad er Instagram", "value": 100},
                {"i": 2, "q": "Her kan du sende billeder og videoer som modtagerne kun kan se i ”få” sekunder.", "a": "Hvad SnapChat", "value": 200},
                {"i": 3, "q": "Dette business sociale medie linker mennesker i erhverves branchen", "a": "Hvad er LinkedIn", "value": 500}
            ]
        },
        {
            "name": "2004",
            "questions": [
                {"i": 4, "q": "Socialt medie grundlagt i 2004, af Mack Zuckerberg", "a": "Hvad er Facebook", "value": 100},
                {"i": 5, "q": "Royalt par der blev gift i vor Frue Kirke den 14. maj 2004", "a": "Hvem er Frederik og Mary", "value": 200},
                {"i": 6, "q": "Skuespiller, deler navn med øen mellem Sjælland og Fyn, og er kendt for 'altid at have en plan', døde i 2004", "a": "Hvem var Ove Sprogøe", "value": 500}
            ]
        },
        {
            "name": "Konfirmanden",
            "questions": [
                {"i": 7, "q": "'Farverig' dag hvor konfirmanderne holder fri og mødes til fælles sjov og shopping.", "a": "Hvad er 'blå mandag'", "value": 100},
                {"i": 8, "q": "Bekendelse konfirmanden blandt andet bliver hørt i af præsten op til den store dag?", "a": "Hvad er trosbekendelsen", "value": 200},
                {"i": 9, "q": "Dette ord betyder konfirmation", "a": "Hvad er bekræftelse", "value": 500}
            ]
        },
        {
            "name": "Cat 4",
            "questions": [
                {"i": 10, "q": "question", "a": "answer", "value": 100},
                {"i": 11, "q": "question", "a": "answer", "value": 200},
                {"i": 12, "q": "question", "a": "answer", "value": 500}
            ]
        }
    ]
}
